<?xml version="1.0" encoding="utf-8"?>
<!-- Generator: Adobe Illustrator 18.0.0, SVG Export Plug-In . SVG Version: 6.00 Build 0)  -->
<!DOCTYPE svg PUBLIC "-//W3C//DTD SVG 1.1//EN" "http://www.w3.org/Graphics/SVG/1.1/DTD/svg11.dtd">
<svg version="1.1" id="Слой_1" xmlns="http://www.w3.org/2000/svg" xmlns:xlink="http://www.w3.org/1999/xlink" x="0px" y="0px"
	 viewBox="0 0 480 480" enable-background="new 0 0 480 480" xml:space="preserve">
<path opacity="0.3" fill="#00E7DF" d="M69.2,63.2L0,69.3V25.8L18.5,0h46.7L69.2,63.2z"/>
<path opacity="0.3" fill="#00E7DF" d="M165.8,20.6l30,110.6L275.2,7.9L165.8,20.6z"/>
<path opacity="0.3" fill="#00E7DF" d="M480,25.8v44.8l-32.2,2.6L480,25.8z M480,138.4v17l-88.2-40.2l56-42L480,138.4z"/>
<path opacity="0.3" fill="#00E7DF" d="M405.2,211.2l10.6,108.7l-79.3,10L405.2,211.2z M480,169v18.9l-64.2,132l17.4-118.7L480,169z
	 M480,320.5v46.8l-64.2-47.4L480,320.5z M293.8,357.9l62.7,64.7l-74,6.6L293.8,357.9L293.8,357.9z M119.8,256.6l100.7,90l73.3,11.3
	L119.8,256.6z M69.2,323.9l17.3-59.3l29.3,126L69.2,323.9z M69.2,323.9l-4,94L0,367.3v-46.8L69.2,323.9L69.2,323.9z M183.8,467.2
	L65.2,417.9l50.6-27.3L183.8,467.2L183.8,467.2z M65.2,417.9V480H18.5L65.2,417.9z"/>
<path opacity="0.3" fill="#00E7DF" d="M12.5,159.9L0,155.4v-17L12.5,159.9z"/>
<path opacity="0.1" fill="#00E7DF" d="M12.5,159.9L0,187.9V169L12.5,159.9z"/>
<path opacity="0.25" fill="#00E7DF" d="M308.5,164.6l28,165.3l-68.7-126L308.5,164.6L308.5,164.6z M405.2,211.2l28-10l-17.4,118.7
	L405.2,211.2L405.2,211.2z M220.5,346.6l62,82.6l11.3-71.3L220.5,346.6L220.5,346.6z"/>
<path opacity="0.3" fill="#00E7DF" d="M282.5,429.2l-6.3,50.8h-74.9L282.5,429.2z M69.2,323.9l46.6,66.7l-50.6,27.3L69.2,323.9
	L69.2,323.9z M12.5,159.9l56.7,164l-4-79.3L12.5,159.9z M276.2,0l-1,7.9L165.8,20.6L201.3,0H276.2z"/>
<path opacity="0.3" fill="#00E7DF" d="M86.5,264.6l33.3-8l-4,134L86.5,264.6z"/>
<path opacity="0.3" fill="#00E7DF" d="M293.8,357.9l122-38l-59.3,102.7L293.8,357.9L293.8,357.9z"/>
<path opacity="0.15" fill="#00E7DF" d="M441.8,429.2l-85.3-6.6l59.3-102.7L441.8,429.2z"/>
<path opacity="0.3" fill="#00E7DF" d="M480,367.3v58.2l-38.2,3.7l-26-109.3L480,367.3L480,367.3z"/>
<path opacity="0.3" fill="#00E7DF" d="M480,425.5V480h-53.3l15.1-50.8L480,425.5L480,425.5z"/>
<path opacity="0.2" fill="#00E7DF" d="M441.8,429.2L426.7,480h-57.5l-12.7-57.4L441.8,429.2z"/>
<path opacity="0.3" fill="#00E7DF" d="M369.2,480h-84.1l71.4-57.4L369.2,480z"/>
<path opacity="0.15" fill="#00E7DF" d="M356.5,422.6L285.1,480h-8.9l6.3-50.8L356.5,422.6z M282.5,429.2L201.3,480h-35.9l18.4-12.8
	L282.5,429.2z"/>
<path opacity="0.3" fill="#00E7DF" d="M115.8,390.6l68,76.6l98.7-38l-116.7-63.3L115.8,390.6L115.8,390.6z"/>
<path opacity="0.15" fill="#00E7DF" d="M119.8,256.6l-4,134l50-24.7L119.8,256.6L119.8,256.6z"/>
<path opacity="0.2" fill="#00E7DF" d="M220.5,346.6l62,82.6l-116.7-63.3l-46-109.3L220.5,346.6L220.5,346.6z"/>
<path opacity="0.2" fill="#00E7DF" d="M183.8,467.2L165.4,480H89l-23.8-62.1L183.8,467.2L183.8,467.2z"/>
<path opacity="0.3" fill="#00E7DF" d="M89,480H65.2v-62.1L89,480z"/>
<path opacity="0.2" fill="#00E7DF" d="M65.2,417.9L0,425.5v-58.2L65.2,417.9z"/>
<path opacity="0.2" fill="#00E7DF" d="M65.2,417.9L18.5,480H9.4L65.2,417.9z"/>
<path opacity="0.2" fill="#00E7DF" d="M65.2,417.9L9.4,480H0v-54.5L65.2,417.9z"/>
<path opacity="0.15" fill="#00E7DF" d="M65.2,244.6l54.6,12l-33.3,8l-17.3,59.3L65.2,244.6L65.2,244.6z"/>
<path opacity="0.3" fill="#00E7DF" d="M12.5,159.9L0,169v-13.6L12.5,159.9z"/>
<path opacity="0.15" fill="#00E7DF" d="M69.2,323.9L0,320.5V187.9l12.5-28L69.2,323.9z M336.5,329.9l-42.7,28l122-38L336.5,329.9z
	 M480,187.9v132.6l-64.2-0.6L480,187.9z M308.5,164.6l124.7,36.6l-28,10l-68.7,118.7L308.5,164.6L308.5,164.6z"/>
<path opacity="0.2" fill="#00E7DF" d="M119.8,256.6l216.7,73.3l-42.7,28L119.8,256.6L119.8,256.6z"/>
<path opacity="0.3" fill="#00E7DF" d="M267.8,203.9l68.7,126l-216.7-73.3L267.8,203.9L267.8,203.9z M12.5,159.9l107.3,96.7l-54.6-12
	L12.5,159.9L12.5,159.9z"/>
<path opacity="0.3" fill="#00E7DF" d="M195.8,131.2l-76,125.4L12.5,159.9L195.8,131.2L195.8,131.2z"/>
<path opacity="0.3" fill="#00E7DF" d="M69.2,63.2l-56.7,96.7l183.3-28.7C195.8,131.2,69.2,63.2,69.2,63.2z"/>
<path opacity="0.2" fill="#00E7DF" d="M69.2,63.2l-56.7,96.7L0,138.4V69.3C0,69.3,69.2,63.2,69.2,63.2z"/>
<path opacity="0.3" fill="#00E7DF" d="M103.2,32.6l-34,30.6L65.2,0H89C89,0,103.2,32.6,103.2,32.6z"/>
<path opacity="0.2" fill="#00E7DF" d="M165.8,20.6l30,110.6l-126.6-68l34-30.6C103.2,32.6,165.8,20.6,165.8,20.6z"/>
<path opacity="0.15" fill="#00E7DF" d="M119.8,256.6l76-125.4l112.7,33.4l-40.7,39.3L119.8,256.6L119.8,256.6z"/>
<path opacity="0.2" fill="#00E7DF" d="M391.8,115.2l41.4,86l-124.7-36.6C308.5,164.6,391.8,115.2,391.8,115.2z M275.2,7.9
	l33.3,156.7l-112.7-33.4L275.2,7.9z"/>
<path opacity="0.3" fill="#00E7DF" d="M391.8,115.2l-83.3,49.4L275.2,7.9l9.9-7.9h84.1L391.8,115.2L391.8,115.2z"/>
<path opacity="0.15" fill="#00E7DF" d="M480,9.9v15.9l-32.2,47.4l-56,42L480,9.9z"/>
<path opacity="0.15" fill="#00E7DF" d="M480,0v9.9l-88.2,105.3L426.7,0H480z"/>
<path opacity="0.2" fill="#00E7DF" d="M426.7,0l-34.9,115.2L369.2,0H426.7z"/>
<path opacity="0.2" fill="#00E7DF" d="M285.1,0l-9.9,7.9l1-7.9H285.1z M201.3,0l-35.5,20.6l-62.6,12L165.4,0H201.3L201.3,0z"/>
<path opacity="0.3" fill="#00E7DF" d="M18.5,0L0,25.8V9.9L9.4,0H18.5z"/>
<path opacity="0.25" fill="#00E7DF" d="M165.4,0l-62.2,32.6L89,0H165.4z M9.4,0L0,9.9V0H9.4z"/>
<path opacity="0.15" fill="#00E7DF" d="M480,66.7v92.7l-32.2-87.5C447.8,71.9,480,66.7,480,66.7z"/>
<path opacity="0.2" fill="#00E7DF" d="M480,155.4V169l-46.8,32.2l-41.4-86L480,155.4z"/>
</svg>
