<?xml version="1.0" encoding="utf-8"?>
<!-- Generator: Adobe Illustrator 22.0.1, SVG Export Plug-In . SVG Version: 6.00 Build 0)  -->
<svg version="1.1" id="Слой_1" xmlns="http://www.w3.org/2000/svg" xmlns:xlink="http://www.w3.org/1999/xlink" x="0px" y="0px"
	 viewBox="0 0 450 243.8" style="enable-background:new 0 0 450 243.8;" xml:space="preserve">
<style type="text/css">
	.st0{fill:#FFFFFF;}
</style>
<path id="surface1" class="st0" d="M225,0C164.1,0,108.9,12.7,68.2,34C27.4,55.3,0,85.9,0,121.9s27.4,66.6,68.2,87.9
	c40.8,21.3,96,34,156.8,34s116.1-12.8,156.8-34c40.8-21.3,68.2-51.9,68.2-87.9S422.6,55.3,381.8,34C341.1,12.7,285.9,0,225,0z
	 M225,18.8c58.2,0,110.9,12.4,148.1,31.9c37.3,19.5,58.1,45,58.1,71.2s-20.8,51.8-58.1,71.2C335.9,212.6,283.2,225,225,225
	s-110.9-12.4-148.1-31.9c-37.3-19.5-58.1-45-58.1-71.2s20.8-51.8,58.1-71.2C114.1,31.2,166.8,18.8,225,18.8z M201.6,37.5L178.1,150
	h24.6l11.9-56.3h19.7c6.3,0,10.4,1,12.4,3.1c1.9,2.1,2.3,6,1.2,11.7l-9,41.4h25l9.7-44.8c2.1-10.7,0.5-18.6-4.7-23.4
	c-5.3-4.9-14.7-6.8-28.6-6.8h-21.9l7.8-37.5H201.6z M93.8,75l-19,103.1h24.8l4.9-28.1h15.4c32.3,0,49.9-7.5,56.4-35.2
	C182,91,167.6,75,143.7,75H93.8z M290.6,75l-19,103.1h24.8l4.9-28.1h15.4c32.3,0,49.9-7.5,56.4-35.2C378.9,91,364.5,75,340.6,75
	H290.6z M115.1,93.8h19.3c16,0,19.4,7.2,18.6,15.2c-2.2,20.7-15,22.3-28.9,22.3H108L115.1,93.8z M311.9,93.8h19.3
	c16,0,19.4,7.2,18.6,15.2c-2.1,20.7-15,22.3-28.9,22.3h-16.1L311.9,93.8z"/>
</svg>
