<?xml version="1.0" encoding="utf-8"?>
<!-- Generator: Adobe Illustrator 18.0.0, SVG Export Plug-In . SVG Version: 6.00 Build 0)  -->
<!DOCTYPE svg PUBLIC "-//W3C//DTD SVG 1.1//EN" "http://www.w3.org/Graphics/SVG/1.1/DTD/svg11.dtd">
<svg version="1.1" id="Слой_1" xmlns="http://www.w3.org/2000/svg" xmlns:xlink="http://www.w3.org/1999/xlink" x="0px" y="0px"
	 viewBox="0 123.3 595.1 595.1" enable-background="new 0 123.3 595.1 595.1" xml:space="preserve">
<path d="M564.3,479.1c3.9-18.6,6.2-38.4,6.2-58.2c0-150.8-122.1-272.8-272.8-272.8c-19.8,0-39.5,2.3-58.2,6.2
	c-25.2-19.5-56.6-31.1-90.8-31.1C66.7,123.3,0,190,0,272.1c0,34.1,11.6,65.5,31,90.6c-3.9,18.6-6.2,38.4-6.2,58.2
	c0,150.8,122.1,272.8,272.8,272.8c19.8,0,39.5-2.3,58.2-6.2c25.2,19.4,56.6,31,90.6,31c82.1,0,148.8-66.7,148.8-148.8
	C595.3,535.6,583.7,504.3,564.3,479.1L564.3,479.1z M305.7,600.7c-87.2,0-160.1-38.8-160.1-86.4c0-21.3,12-40.7,39.2-40.7
	c41.5,0,45.3,59.7,117.1,59.7c34.1,0,56.2-15.1,56.2-34.9c0-24.8-21.3-28.7-55.8-37.2c-83-20.5-156.5-29.2-156.5-115.9
	c0-78.7,77.9-107.8,145-107.8c73.2,0,147.2,29.1,147.2,73.6c0,22.5-15.1,42.3-40.3,42.3c-37.6,0-38.8-44.5-99.7-44.5
	c-34.1,0-55.8,9.3-55.8,29.9c0,26.3,27.6,29,91.8,43.8c55,12.4,120.5,35.6,120.5,103.1C454.6,564.3,378.7,600.7,305.7,600.7
	L305.7,600.7z"/>
</svg>
